{
  "images" : [
    {
      "filename" : "kisspng-computer-icons-scalable-vector-graphics-clip-art-i-5be9c52e1cc386.0895930515420470221178.png",
      "idiom" : "universal",
      "scale" : "1x"
    },
    {
      "idiom" : "universal",
      "scale" : "2x"
    },
    {
      "idiom" : "universal",
      "scale" : "3x"
    }
  ],
  "info" : {
    "author" : "xcode",
    "version" : 1
  }
}
